{
    "Timings": [
        [
            4.654852790364758e-05,
            4.738304333829705e-05,
            4.832036843258227e-05,
            5.001947795677051e-05,
            5.709650099272033e-05,
            6.485736114139215e-05,
            8.258699959935037e-05
        ],
        [
            5.244775403645446e-05,
            5.842018182006392e-05,
            9.18943014763921e-05,
            0.00013996759223121774,
            0.00033261048621559025,
            0.0005253714388334825,
            0.0010073876522386088
        ],
        [
            6.842616719873618e-05,
            9.224902619305363e-05,
            0.00022798033562688422,
            0.0004190869774594349,
            0.0011963580091434187,
            0.0019729969883137454,
            0.003922246405577881
        ],
        [
            0.0006919623546784918,
            0.0012852142074336785,
            0.004693076571628405,
            0.009534704018100658,
            0.02913236002885137,
            0.0488629804948071,
            0.0978638705312278
        ],
        [
            0.005742003511487769,
            0.008107169503844824,
            0.021917299913230107,
            0.04126251752339288,
            0.11892814332145463,
            0.1976308541249523,
            0.40663803124994047
        ],
        [
            0.25035068010417183,
            0.30725928333329955,
            0.6475938509998969,
            1.1316492020000624,
            3.204991663749979,
            5.225015262249826,
            10.291564265249917
        ]
    ],
    "Benchmark": "Squared Euclidean distance matrix K, Python/SciPy",
    "System": "aurum, Darwin-15.5.0-x86_64-i386-64bit, Python 3.5.1",
    "DateTime": "2016-07-06_08-59",
    "ThetaGrid": [
        [
            [
                10,
                1
            ],
            [
                10,
                10
            ],
            [
                10,
                50
            ],
            [
                10,
                100
            ],
            [
                10,
                300
            ],
            [
                10,
                500
            ],
            [
                10,
                1000
            ]
        ],
        [
            [
                50,
                1
            ],
            [
                50,
                10
            ],
            [
                50,
                50
            ],
            [
                50,
                100
            ],
            [
                50,
                300
            ],
            [
                50,
                500
            ],
            [
                50,
                1000
            ]
        ],
        [
            [
                100,
                1
            ],
            [
                100,
                10
            ],
            [
                100,
                50
            ],
            [
                100,
                100
            ],
            [
                100,
                300
            ],
            [
                100,
                500
            ],
            [
                100,
                1000
            ]
        ],
        [
            [
                500,
                1
            ],
            [
                500,
                10
            ],
            [
                500,
                50
            ],
            [
                500,
                100
            ],
            [
                500,
                300
            ],
            [
                500,
                500
            ],
            [
                500,
                1000
            ]
        ],
        [
            [
                1000,
                1
            ],
            [
                1000,
                10
            ],
            [
                1000,
                50
            ],
            [
                1000,
                100
            ],
            [
                1000,
                300
            ],
            [
                1000,
                500
            ],
            [
                1000,
                1000
            ]
        ],
        [
            [
                5000,
                1
            ],
            [
                5000,
                10
            ],
            [
                5000,
                50
            ],
            [
                5000,
                100
            ],
            [
                5000,
                300
            ],
            [
                5000,
                500
            ],
            [
                5000,
                1000
            ]
        ]
    ],
    "Theta": [
        [
            "n",
            [
                10,
                50,
                100,
                500,
                1000,
                5000
            ]
        ],
        [
            "d",
            [
                1,
                10,
                50,
                100,
                300,
                500,
                1000
            ]
        ]
    ]
}