{
    "DateTime": "2016-07-04_17-58",
    "Benchmark": "Linear kernel vector m, Mathematica/C++/BLAS",
    "System": "aurum, MacOSX-x86-64, Mathematica 10.4",
    "Theta": [
        [
            "n",
            [
                10,
                50,
                100,
                500,
                1000,
                5000,
                10000
            ]
        ],
        [
            "d",
            [
                1,
                10,
                50,
                100,
                300,
                500,
                1000,
                10000
            ]
        ]
    ],
    "ThetaGrid": [
        [
            [
                10,
                1
            ],
            [
                10,
                10
            ],
            [
                10,
                50
            ],
            [
                10,
                100
            ],
            [
                10,
                300
            ],
            [
                10,
                500
            ],
            [
                10,
                1000
            ],
            [
                10,
                10000
            ]
        ],
        [
            [
                50,
                1
            ],
            [
                50,
                10
            ],
            [
                50,
                50
            ],
            [
                50,
                100
            ],
            [
                50,
                300
            ],
            [
                50,
                500
            ],
            [
                50,
                1000
            ],
            [
                50,
                10000
            ]
        ],
        [
            [
                100,
                1
            ],
            [
                100,
                10
            ],
            [
                100,
                50
            ],
            [
                100,
                100
            ],
            [
                100,
                300
            ],
            [
                100,
                500
            ],
            [
                100,
                1000
            ],
            [
                100,
                10000
            ]
        ],
        [
            [
                500,
                1
            ],
            [
                500,
                10
            ],
            [
                500,
                50
            ],
            [
                500,
                100
            ],
            [
                500,
                300
            ],
            [
                500,
                500
            ],
            [
                500,
                1000
            ],
            [
                500,
                10000
            ]
        ],
        [
            [
                1000,
                1
            ],
            [
                1000,
                10
            ],
            [
                1000,
                50
            ],
            [
                1000,
                100
            ],
            [
                1000,
                300
            ],
            [
                1000,
                500
            ],
            [
                1000,
                1000
            ],
            [
                1000,
                10000
            ]
        ],
        [
            [
                5000,
                1
            ],
            [
                5000,
                10
            ],
            [
                5000,
                50
            ],
            [
                5000,
                100
            ],
            [
                5000,
                300
            ],
            [
                5000,
                500
            ],
            [
                5000,
                1000
            ],
            [
                5000,
                10000
            ]
        ],
        [
            [
                10000,
                1
            ],
            [
                10000,
                10
            ],
            [
                10000,
                50
            ],
            [
                10000,
                100
            ],
            [
                10000,
                300
            ],
            [
                10000,
                500
            ],
            [
                10000,
                1000
            ],
            [
                10000,
                10000
            ]
        ]
    ],
    "Timings": [
        [
            2.09635e-6,
            2.33261e-6,
            2.37991e-6,
            2.46031e-6,
            2.79284e-6,
            3.14812e-6,
            3.80588e-6,
            2.2748e-5
        ],
        [
            2.23873e-6,
            2.77464e-6,
            3.04559e-6,
            3.45252e-6,
            4.85316e-6,
            6.76514e-6,
            1.36215e-5,
            0.000108744
        ],
        [
            2.4872e-6,
            3.29575e-6,
            3.87617e-6,
            4.53203e-6,
            8.79219e-6,
            1.43625e-5,
            2.407e-5,
            0.00037538
        ],
        [
            4.07157e-6,
            7.31648e-6,
            1.05118e-5,
            1.49644e-5,
            3.852e-5,
            5.891e-5,
            0.00011736,
            0.00246444
        ],
        [
            6.0399e-6,
            1.22175e-5,
            1.90511e-5,
            2.65874e-5,
            7.36359e-5,
            0.000125052,
            0.000429707,
            0.00491665
        ],
        [
            2.17365e-5,
            5.17217e-5,
            8.04743e-5,
            0.000127113,
            0.000957399,
            0.00170329,
            0.00297209,
            0.0244474
        ],
        [
            4.14597e-5,
            0.000100711,
            0.000168727,
            0.00044728,
            0.00220797,
            0.00346828,
            0.00593513,
            0.0488468
        ]
    ]
}