{
    "DateTime": "2016-07-04_15-26",
    "System": "aurum, Darwin-15.5.0-x86_64-i386-64bit, Python 3.5.1",
    "Benchmark": "Linear kernel vector m, Python/NumPy/norm",
    "Theta": [
        [
            "n",
            [
                10,
                50,
                100,
                500,
                1000,
                5000,
                10000
            ]
        ],
        [
            "d",
            [
                1,
                10,
                50,
                100,
                300,
                500,
                1000,
                10000
            ]
        ]
    ],
    "ThetaGrid": [
        [
            [
                10,
                1
            ],
            [
                10,
                10
            ],
            [
                10,
                50
            ],
            [
                10,
                100
            ],
            [
                10,
                300
            ],
            [
                10,
                500
            ],
            [
                10,
                1000
            ],
            [
                10,
                10000
            ]
        ],
        [
            [
                50,
                1
            ],
            [
                50,
                10
            ],
            [
                50,
                50
            ],
            [
                50,
                100
            ],
            [
                50,
                300
            ],
            [
                50,
                500
            ],
            [
                50,
                1000
            ],
            [
                50,
                10000
            ]
        ],
        [
            [
                100,
                1
            ],
            [
                100,
                10
            ],
            [
                100,
                50
            ],
            [
                100,
                100
            ],
            [
                100,
                300
            ],
            [
                100,
                500
            ],
            [
                100,
                1000
            ],
            [
                100,
                10000
            ]
        ],
        [
            [
                500,
                1
            ],
            [
                500,
                10
            ],
            [
                500,
                50
            ],
            [
                500,
                100
            ],
            [
                500,
                300
            ],
            [
                500,
                500
            ],
            [
                500,
                1000
            ],
            [
                500,
                10000
            ]
        ],
        [
            [
                1000,
                1
            ],
            [
                1000,
                10
            ],
            [
                1000,
                50
            ],
            [
                1000,
                100
            ],
            [
                1000,
                300
            ],
            [
                1000,
                500
            ],
            [
                1000,
                1000
            ],
            [
                1000,
                10000
            ]
        ],
        [
            [
                5000,
                1
            ],
            [
                5000,
                10
            ],
            [
                5000,
                50
            ],
            [
                5000,
                100
            ],
            [
                5000,
                300
            ],
            [
                5000,
                500
            ],
            [
                5000,
                1000
            ],
            [
                5000,
                10000
            ]
        ],
        [
            [
                10000,
                1
            ],
            [
                10000,
                10
            ],
            [
                10000,
                50
            ],
            [
                10000,
                100
            ],
            [
                10000,
                300
            ],
            [
                10000,
                500
            ],
            [
                10000,
                1000
            ],
            [
                10000,
                10000
            ]
        ]
    ],
    "Timings": [
        [
            2.6218474327385395e-05,
            2.6844664874303084e-05,
            2.731500451017836e-05,
            2.8284091672970527e-05,
            3.0346931341533975e-05,
            3.2049457877438456e-05,
            3.651232735115696e-05,
            0.00010874215203078194
        ],
        [
            2.649962759546893e-05,
            2.788587294090209e-05,
            3.022701293426021e-05,
            3.214835334871669e-05,
            4.1415431631396785e-05,
            5.136512863535022e-05,
            7.008861231438477e-05,
            0.0006862914925022363
        ],
        [
            2.6556647051101428e-05,
            2.9727576615910898e-05,
            3.306046160868216e-05,
            3.690284308490635e-05,
            5.651937330809801e-05,
            7.103927615196102e-05,
            0.00010860563540827087,
            0.003338798066108397
        ],
        [
            2.8509151391711878e-05,
            3.849148429148586e-05,
            5.581371015626077e-05,
            7.363337950852639e-05,
            0.00015706797449739854,
            0.0002465908868961039,
            0.0006852287749681614,
            0.015098967485009778
        ],
        [
            3.153456539255239e-05,
            4.920002584003974e-05,
            8.051297372860323e-05,
            0.0001161028176288663,
            0.00032755807242083705,
            0.0006963000546334373,
            0.0033333211271594477,
            0.031247125677482473
        ],
        [
            4.560881819118707e-05,
            0.00013202295381800445,
            0.0002936792635208442,
            0.0007209649311925385,
            0.005096161932121807,
            0.008423359989641346,
            0.015124172940485535,
            0.20967305206272613
        ],
        [
            6.262129344994358e-05,
            0.00023257994413731535,
            0.0007820474340454295,
            0.003399567145902757,
            0.010597831355789348,
            0.015046291464987007,
            0.031212528624131056,
            0.41173960312471536
        ]
    ]
}